<svg xmlns="http://www.w3.org/2000/svg" width="11.85" height="11.85" viewBox="0 0 11.85 11.85">
  <path id="パス_97" data-name="パス 97" d="M11.351,10.527l2.5,2.5-.825.825-2.5-2.5a5.251,5.251,0,1,1,.825-.825Zm-1.17-.433a4.082,4.082,0,1,0-.088.087l.088-.088Z" transform="translate(-2 -2)" fill="#fff"/>
</svg>
