<svg xmlns="http://www.w3.org/2000/svg" width="128.189" height="121.113" viewBox="0 0 128.189 121.113">
  <g id="グループ_111" data-name="グループ 111" transform="translate(-238.115 -254.18)">
    <g id="グループ_103" data-name="グループ 103" transform="translate(304.203 329.529)">
      <g id="グループ_102" data-name="グループ 102" transform="translate(0)">
        <g id="グループ_65" data-name="グループ 65">
          <g id="グループ_64" data-name="グループ 64">
            <path id="パス_61" data-name="パス 61" d="M340.574,415.211a.79.79,0,0,1-.789-.789V371.965a1.87,1.87,0,0,1,1.868-1.868h58.364a1.871,1.871,0,0,1,1.869,1.868v42.456a.79.79,0,0,1-.789.789Zm59.734-1.579V371.965a.291.291,0,0,0-.291-.291H341.653a.291.291,0,0,0-.29.291v41.667Z" transform="translate(-339.785 -370.097)" fill="#40a784"/>
          </g>
        </g>
        <g id="グループ_67" data-name="グループ 67" transform="translate(0 5.583)">
          <g id="グループ_66" data-name="グループ 66">
            <path id="パス_62" data-name="パス 62" d="M340.574,380.264a.789.789,0,0,1,0-1.578H401.1a.789.789,0,0,1,0,1.578Z" transform="translate(-339.785 -378.686)" fill="#40a784"/>
          </g>
        </g>
        <g id="グループ_74" data-name="グループ 74" transform="translate(3.224 2.064)">
          <g id="グループ_69" data-name="グループ 69">
            <g id="グループ_68" data-name="グループ 68">
              <path id="パス_63" data-name="パス 63" d="M345.533,376.1a.79.79,0,0,1-.788-.79v-1.25a.789.789,0,1,1,1.578,0v1.25A.791.791,0,0,1,345.533,376.1Z" transform="translate(-344.745 -373.273)" fill="#40a784"/>
            </g>
          </g>
          <g id="グループ_71" data-name="グループ 71" transform="translate(2.06)">
            <g id="グループ_70" data-name="グループ 70">
              <path id="パス_64" data-name="パス 64" d="M348.7,376.1a.79.79,0,0,1-.789-.79v-1.25a.789.789,0,1,1,1.578,0v1.25A.79.79,0,0,1,348.7,376.1Z" transform="translate(-347.914 -373.273)" fill="#40a784"/>
            </g>
          </g>
          <g id="グループ_73" data-name="グループ 73" transform="translate(4.12)">
            <g id="グループ_72" data-name="グループ 72">
              <path id="パス_65" data-name="パス 65" d="M351.872,376.1a.79.79,0,0,1-.789-.79v-1.25a.789.789,0,1,1,1.578,0v1.25A.79.79,0,0,1,351.872,376.1Z" transform="translate(-351.083 -373.273)" fill="#40a784"/>
            </g>
          </g>
        </g>
        <g id="グループ_82" data-name="グループ 82" transform="translate(8.166 12.3)">
          <g id="グループ_76" data-name="グループ 76" transform="translate(6.774)">
            <g id="グループ_75" data-name="グループ 75">
              <path id="パス_66" data-name="パス 66" d="M363.559,399.612a.79.79,0,0,1-.752-1.028l2.856-9.015a.789.789,0,0,1,1.5.478l-2.856,9.015A.787.787,0,0,1,363.559,399.612Z" transform="translate(-362.77 -389.02)" fill="#40a784"/>
            </g>
          </g>
          <g id="グループ_81" data-name="グループ 81" transform="translate(0 1.771)">
            <g id="グループ_78" data-name="グループ 78">
              <g id="グループ_77" data-name="グループ 77">
                <path id="パス_67" data-name="パス 67" d="M355.873,398.794a.784.784,0,0,1-.558-.232l-2.736-2.735a.788.788,0,0,1,0-1.115l2.736-2.735a.789.789,0,0,1,1.117,1.115l-2.179,2.178,2.178,2.178a.79.79,0,0,1-.558,1.347Z" transform="translate(-352.348 -391.745)" fill="#40a784"/>
              </g>
            </g>
            <g id="グループ_80" data-name="グループ 80" transform="translate(13.669)">
              <g id="グループ_79" data-name="グループ 79">
                <path id="パス_68" data-name="パス 68" d="M374.166,398.794a.79.79,0,0,1-.558-1.347l2.178-2.178-2.178-2.178a.789.789,0,0,1,1.117-1.115l2.735,2.735a.791.791,0,0,1,0,1.115l-2.736,2.735A.781.781,0,0,1,374.166,398.794Z" transform="translate(-373.377 -391.745)" fill="#40a784"/>
              </g>
            </g>
          </g>
        </g>
        <g id="グループ_84" data-name="グループ 84" transform="translate(4.149 8.684)">
          <g id="グループ_83" data-name="グループ 83">
            <path id="パス_69" data-name="パス 69" d="M346.958,401.28a.791.791,0,0,1-.79-.789V384.245a.79.79,0,0,1,.79-.789H371.4a.79.79,0,0,1,.788.789v16.245a.79.79,0,0,1-.788.789Zm23.649-1.578V385.035H347.747V399.7Z" transform="translate(-346.168 -383.456)" fill="#40a784"/>
          </g>
        </g>
        <g id="グループ_93" data-name="グループ 93" transform="translate(32.383 11.383)">
          <g id="グループ_86" data-name="グループ 86">
            <g id="グループ_85" data-name="グループ 85">
              <path id="パス_70" data-name="パス 70" d="M390.392,389.187a.789.789,0,0,1,0-1.579h15.6a.789.789,0,0,1,0,1.579Z" transform="translate(-389.603 -387.608)" fill="#40a784"/>
            </g>
          </g>
          <g id="グループ_88" data-name="グループ 88" transform="translate(0 3.617)">
            <g id="グループ_87" data-name="グループ 87">
              <path id="パス_71" data-name="パス 71" d="M390.392,394.75a.789.789,0,0,1,0-1.578h23.975a.789.789,0,0,1,0,1.578Z" transform="translate(-389.603 -393.172)" fill="#40a784"/>
            </g>
          </g>
          <g id="グループ_90" data-name="グループ 90" transform="translate(0 7.232)">
            <g id="グループ_89" data-name="グループ 89">
              <path id="パス_72" data-name="パス 72" d="M390.392,400.312a.789.789,0,1,1,0-1.578H411.08a.789.789,0,1,1,0,1.578Z" transform="translate(-389.603 -398.734)" fill="#40a784"/>
            </g>
          </g>
          <g id="グループ_92" data-name="グループ 92" transform="translate(0 10.848)">
            <g id="グループ_91" data-name="グループ 91">
              <path id="パス_73" data-name="パス 73" d="M390.392,405.874a.789.789,0,0,1,0-1.578h8.933a.789.789,0,0,1,0,1.578Z" transform="translate(-389.603 -404.296)" fill="#40a784"/>
            </g>
          </g>
        </g>
        <g id="グループ_95" data-name="グループ 95" transform="translate(4.15 30.9)">
          <g id="グループ_94" data-name="グループ 94">
            <path id="パス_74" data-name="パス 74" d="M346.958,427.712a.783.783,0,0,1-.558-.231.792.792,0,0,1,0-1.116l3.712-3.712-3.671-3.672a.788.788,0,0,1,.558-1.347h0a.782.782,0,0,1,.558.231l4.23,4.23a.791.791,0,0,1,0,1.116l-4.27,4.269A.779.779,0,0,1,346.958,427.712Z" transform="translate(-346.17 -417.634)" fill="#40a784"/>
          </g>
        </g>
        <g id="グループ_97" data-name="グループ 97" transform="translate(12.943 30.9)">
          <g id="グループ_96" data-name="グループ 96">
            <path id="パス_75" data-name="パス 75" d="M360.487,419.212a.789.789,0,1,1,0-1.579H379.6a.789.789,0,0,1,0,1.579Z" transform="translate(-359.697 -417.633)" fill="#40a784"/>
          </g>
        </g>
        <g id="グループ_99" data-name="グループ 99" transform="translate(12.943 35.15)">
          <g id="グループ_98" data-name="グループ 98">
            <path id="パス_76" data-name="パス 76" d="M360.487,425.751a.789.789,0,1,1,0-1.579h13.608a.789.789,0,0,1,0,1.579Z" transform="translate(-359.697 -424.172)" fill="#40a784"/>
          </g>
        </g>
        <g id="グループ_101" data-name="グループ 101" transform="translate(12.943 39.4)">
          <g id="グループ_100" data-name="グループ 100">
            <path id="パス_77" data-name="パス 77" d="M360.487,432.288a.789.789,0,1,1,0-1.578H384.6a.789.789,0,0,1,0,1.578Z" transform="translate(-359.697 -430.71)" fill="#40a784"/>
          </g>
        </g>
      </g>
    </g>
    <g id="グループ_104" data-name="グループ 104" transform="translate(238.115 325.309)">
      <path id="パス_78" data-name="パス 78" d="M267.618,417.174H262.4a24.312,24.312,0,0,1-24.284-24.284V376.512a2.665,2.665,0,0,1,2.662-2.663H289.24a2.665,2.665,0,0,1,2.662,2.663V392.89A24.312,24.312,0,0,1,267.618,417.174ZM240.777,375.8a.713.713,0,0,0-.712.712V392.89A22.359,22.359,0,0,0,262.4,415.224h5.218a22.359,22.359,0,0,0,22.334-22.334V376.512a.713.713,0,0,0-.712-.712Z" transform="translate(-238.115 -367.191)" fill="#40a784"/>
      <path id="パス_79" data-name="パス 79" d="M306.628,393.431h-4.845a4.3,4.3,0,1,1,0-8.608h4.845a.975.975,0,1,1,0,1.95h-4.845a2.354,2.354,0,1,0,0,4.707h4.845a.975.975,0,0,1,0,1.95Z" transform="translate(-258.891 -371.031)" fill="#40a784"/>
      <path id="パス_80" data-name="パス 80" d="M252.718,393.431h-4.845a.975.975,0,1,1,0-1.95h4.845a2.354,2.354,0,0,0,0-4.707h-4.845a.975.975,0,0,1,0-1.95h4.845a4.3,4.3,0,0,1,0,8.608Z" transform="translate(-241.189 -371.031)" fill="#40a784"/>
      <path id="パス_81" data-name="パス 81" d="M259.979,424.873a.975.975,0,0,1-.96-.815c-1.714-10.282-8.711-11.945-12.47-12.839l-.512-.122a.975.975,0,1,1,.462-1.894l.5.12c3.9.927,12.016,2.856,13.943,14.415a.975.975,0,0,1-.8,1.123A1.058,1.058,0,0,1,259.979,424.873Z" transform="translate(-240.627 -379.554)" fill="#40a784"/>
      <path id="パス_82" data-name="パス 82" d="M290.493,424.873a1.044,1.044,0,0,1-.161-.013.974.974,0,0,1-.8-1.123c1.926-11.559,10.042-13.488,13.942-14.415l.5-.12a.975.975,0,1,1,.462,1.894l-.511.122c-3.76.894-10.757,2.557-12.47,12.839A.975.975,0,0,1,290.493,424.873Z" transform="translate(-256.104 -379.554)" fill="#40a784"/>
      <path id="パス_83" data-name="パス 83" d="M288.789,365.556H246.214a.975.975,0,0,1,0-1.95h42.575a.975.975,0,0,1,0,1.95Z" transform="translate(-240.608 -363.606)" fill="#40a784"/>
    </g>
    <g id="グループ_110" data-name="グループ 110" transform="translate(263.716 254.18)">
      <path id="パス_84" data-name="パス 84" d="M285.3,311.232a1.846,1.846,0,0,1-1.829-1.625l-5.952-49.239a1.845,1.845,0,0,1,1.611-2.053l34.019-4.113a2.936,2.936,0,0,1,3.268,2.562l5.691,47.075a2.937,2.937,0,0,1-2.562,3.268h0l-34.019,4.113A2.034,2.034,0,0,1,285.3,311.232Zm-5.833-50.994,5.928,49.032,33.915-4.1a.986.986,0,0,0,.861-1.1L314.475,257a.987.987,0,0,0-1.1-.861Zm39.961,45.9h0Z" transform="translate(-277.5 -254.18)" fill="#40a784"/>
      <g id="グループ_105" data-name="グループ 105" transform="translate(8.64 23.706)">
        <rect id="長方形_29" data-name="長方形 29" width="25.434" height="22.484" rx="1.524" transform="matrix(0.993, -0.12, 0.12, 0.993, 0.815, 3.867)" fill="#fff"/>
        <path id="パス_85" data-name="パス 85" d="M295.171,317.654a1.921,1.921,0,0,1-1.9-1.688l-2.461-20.355a1.921,1.921,0,0,1,1.673-2.134l23.283-2.815a1.923,1.923,0,0,1,2.134,1.674l2.461,20.354a1.919,1.919,0,0,1-1.674,2.134L295.4,317.64A1.982,1.982,0,0,1,295.171,317.654ZM315.993,292.5h-.008L292.7,295.317a.064.064,0,0,0-.055.071l2.46,20.355a.063.063,0,0,0,.072.056l23.282-2.815h0a.073.073,0,0,0,.056-.072l-2.461-20.354A.064.064,0,0,0,315.993,292.5Z" transform="translate(-290.793 -290.649)" fill="#40a784"/>
      </g>
      <g id="グループ_106" data-name="グループ 106" transform="translate(26.446 8.111)">
        <path id="パス_86" data-name="パス 86" d="M353.633,326.2l-33.283-8.151A.871.871,0,0,1,319.71,317l11.8-48.173a.871.871,0,0,1,1.053-.639l33.283,8.151a1.962,1.962,0,0,1,1.439,2.372L356,324.762A1.961,1.961,0,0,1,353.633,326.2Z" transform="translate(-318.71 -267.183)" fill="#fff"/>
        <path id="パス_87" data-name="パス 87" d="M353.579,326.708a2.959,2.959,0,0,1-.7-.086l-33.283-8.151a1.845,1.845,0,0,1-1.354-2.232l11.8-48.173a1.846,1.846,0,0,1,2.233-1.354l33.283,8.151a2.938,2.938,0,0,1,2.154,3.551l-11.279,46.056a2.94,2.94,0,0,1-2.846,2.239ZM320.157,316.6l33.182,8.127h0a.986.986,0,0,0,1.192-.723l11.279-46.056a.987.987,0,0,0-.723-1.193L331.9,268.63Z" transform="translate(-318.184 -266.658)" fill="#40a784"/>
      </g>
      <g id="グループ_107" data-name="グループ 107" transform="translate(33.521 32.138)">
        <rect id="長方形_30" data-name="長方形 30" width="22.484" height="25.434" rx="1.524" transform="translate(0.721 22.56) rotate(-76.239)" fill="#fff"/>
        <path id="パス_88" data-name="パス 88" d="M353.767,332.95a1.9,1.9,0,0,1-.456-.055h0l-22.779-5.578A1.917,1.917,0,0,1,329.125,325L334,305.084a1.918,1.918,0,0,1,2.319-1.407l22.779,5.579a1.92,1.92,0,0,1,1.406,2.319l-4.876,19.914A1.921,1.921,0,0,1,353.767,332.95Zm-.015-1.855a.065.065,0,0,0,.077-.047l4.876-19.914a.064.064,0,0,0-.047-.078l-22.778-5.579a.063.063,0,0,0-.077.047l-4.877,19.915a.073.073,0,0,0,.047.077l22.779,5.578Z" transform="translate(-329.069 -303.621)" fill="#40a784"/>
      </g>
      <g id="グループ_108" data-name="グループ 108" transform="translate(40.869 17.392)">
        <rect id="長方形_31" data-name="長方形 31" width="6.745" height="25.434" rx="1.477" transform="translate(0.726 7.277) rotate(-76.239)" fill="#fff"/>
        <path id="パス_89" data-name="パス 89" d="M365.1,294.989a1.924,1.924,0,0,1-.447-.054h0l-22.839-5.593a1.89,1.89,0,0,1-1.384-2.282l1.148-4.687a1.888,1.888,0,0,1,2.282-1.383l22.839,5.593a1.887,1.887,0,0,1,1.384,2.282l-1.148,4.686A1.892,1.892,0,0,1,365.1,294.989Zm-.007-1.855a.033.033,0,0,0,.04-.025l1.148-4.685-22.863-5.634-1.188,4.711,22.863,5.634Z" transform="translate(-340.374 -280.935)" fill="#40a784"/>
      </g>
      <g id="グループ_109" data-name="グループ 109" transform="translate(6.816 8.634)">
        <rect id="長方形_32" data-name="長方形 32" width="25.434" height="6.745" rx="1.477" transform="translate(0.819 3.872) rotate(-6.893)" fill="#fff"/>
        <path id="パス_90" data-name="パス 90" d="M290.451,278.849a1.89,1.89,0,0,1-1.873-1.66L288,272.4a1.892,1.892,0,0,1,1.647-2.1l23.344-2.822a1.886,1.886,0,0,1,2.1,1.648l.579,4.79a1.887,1.887,0,0,1-1.647,2.1l-23.344,2.822A1.916,1.916,0,0,1,290.451,278.849Zm22.8-9.5-23.381,2.793.551,4.828,23.38-2.794h0a.037.037,0,0,0,.029-.037Z" transform="translate(-287.985 -267.462)" fill="#40a784"/>
      </g>
    </g>
  </g>
</svg>
